lab04.vcd
$date
	Fri Jun 12 17:24:28 2026
$end
$version
	Icarus Verilog
$end
$timescale
	1ps
$end
$scope module processor_tb $end
$var wire 32 ! write_reg_data [31:0] $end
$var wire 5 " write_reg_addr [4:0] $end
$var wire 32 # reg2_data [31:0] $end
$var wire 5 $ reg2_addr [4:0] $end
$var wire 32 % reg1_data [31:0] $end
$var wire 5 & reg1_addr [4:0] $end
$var wire 32 ' prog_count [31:0] $end
$var wire 6 ( instr_opcode [5:0] $end
$var reg 1 ) clk $end
$var reg 1 * rst $end
$var integer 32 + passedTests [31:0] $end
$var integer 32 , totalTests [31:0] $end
$scope module uut $end
$var wire 32 - PC [31:0] $end
$var wire 1 . PCSrc $end
$var wire 1 ) clk $end
$var wire 5 / dst_addr [4:0] $end
$var wire 32 0 dst_data [31:0] $end
$var wire 6 1 opcode [5:0] $end
$var wire 1 * rst $end
$var wire 5 2 src1_addr [4:0] $end
$var wire 32 3 src1_out [31:0] $end
$var wire 5 4 src2_addr [4:0] $end
$var wire 32 5 src2_out [31:0] $end
$var wire 32 6 src2_out_temp [31:0] $end
$var wire 5 7 src2_addr_temp [4:0] $end
$var wire 32 8 src1_out_temp [31:0] $end
$var wire 5 9 src1_addr_temp [4:0] $end
$var wire 8 : s7 [7:0] $end
$var wire 8 ; s6 [7:0] $end
$var wire 32 < s5 [31:0] $end
$var wire 1 = s4 $end
$var wire 32 > s3 [31:0] $end
$var wire 6 ? s2 [5:0] $end
$var wire 16 @ s1 [15:0] $end
$var wire 32 A s0 [31:0] $end
$var wire 1 B reg_write $end
$var wire 1 C reg_dst $end
$var wire 6 D opcode_temp [5:0] $end
$var wire 1 E mem_write $end
$var wire 1 F mem_to_reg $end
$var wire 1 G mem_read $end
$var wire 32 H mem_addr [31:0] $end
$var wire 32 I instr [31:0] $end
$var wire 32 J incrPC [31:0] $end
$var wire 32 K imm32 [31:0] $end
$var wire 32 L dst_data_temp [31:0] $end
$var wire 5 M dst_addr_temp [4:0] $end
$var wire 5 N dst_addr1 [4:0] $end
$var wire 32 O data_val [31:0] $end
$var wire 32 P branchAddr [31:0] $end
$var wire 1 Q branch $end
$var wire 1 R alu_src $end
$var wire 2 S alu_op [1:0] $end
$var wire 4 T alu_control [3:0] $end
$var wire 32 U PC_temp [31:0] $end
$scope module DIG_BitExtender_i9 $end
$var wire 16 V in [15:0] $end
$var wire 32 W out [31:0] $end
$upscope $end
$scope module DIG_RAMDualAccess_i6 $end
$var wire 8 X \1A [7:0] $end
$var wire 8 Y \2A [7:0] $end
$var wire 32 Z \2D [31:0] $end
$var wire 1 ) C $end
$var wire 1 E str $end
$var wire 1 G ld $end
$var wire 32 [ \1Din [31:0] $end
$var wire 32 \ \1D [31:0] $end
$upscope $end
$scope module Mux_2x1_NBits_i10 $end
$var wire 32 ] in_1 [31:0] $end
$var wire 1 F sel $end
$var wire 32 ^ in_0 [31:0] $end
$var reg 32 _ out [31:0] $end
$upscope $end
$scope module Mux_2x1_NBits_i11 $end
$var wire 5 ` in_0 [4:0] $end
$var wire 5 a in_1 [4:0] $end
$var wire 1 C sel $end
$var reg 5 b out [4:0] $end
$upscope $end
$scope module Mux_2x1_NBits_i4 $end
$var wire 32 c in_1 [31:0] $end
$var wire 1 R sel $end
$var wire 32 d in_0 [31:0] $end
$var reg 32 e out [31:0] $end
$upscope $end
$scope module Mux_2x1_NBits_i7 $end
$var wire 1 . sel $end
$var wire 32 f in_1 [31:0] $end
$var wire 32 g in_0 [31:0] $end
$var reg 32 h out [31:0] $end
$upscope $end
$scope module alu_control_i12 $end
$var wire 6 i funct [5:0] $end
$var wire 2 j alu_op [1:0] $end
$var reg 4 k alu_control [3:0] $end
$upscope $end
$scope module alu_i2 $end
$var wire 32 l B [31:0] $end
$var wire 4 m alu_control [3:0] $end
$var wire 32 n A [31:0] $end
$var reg 32 o result [31:0] $end
$var reg 32 p temp [31:0] $end
$var reg 1 q zero $end
$upscope $end
$scope module alu_i3 $end
$var wire 32 r B [31:0] $end
$var wire 4 s alu_control [3:0] $end
$var wire 32 t A [31:0] $end
$var reg 32 u result [31:0] $end
$var reg 32 v temp [31:0] $end
$var reg 1 = zero $end
$upscope $end
$scope module alu_i5 $end
$var wire 32 w A [31:0] $end
$var wire 32 x B [31:0] $end
$var wire 4 y alu_control [3:0] $end
$var reg 32 z result [31:0] $end
$var reg 32 { temp [31:0] $end
$var reg 1 | zero $end
$upscope $end
$scope module control_unit_i8 $end
$var wire 6 } instr_op [5:0] $end
$var reg 2 ~ alu_op [1:0] $end
$var reg 1 R alu_src $end
$var reg 1 Q branch $end
$var reg 1 G mem_read $end
$var reg 1 F mem_to_reg $end
$var reg 1 E mem_write $end
$var reg 1 C reg_dst $end
$var reg 1 B reg_write $end
$upscope $end
$scope module cpu_registers_i1 $end
$var wire 1 ) clk $end
$var wire 32 !" data_in [31:0] $end
$var wire 5 "" dst_addr [4:0] $end
$var wire 1 * rst $end
$var wire 5 #" src1_addr [4:0] $end
$var wire 32 $" src1_out [31:0] $end
$var wire 5 %" src2_addr [4:0] $end
$var wire 32 &" src2_out [31:0] $end
$var wire 1 B write_en $end
$var integer 32 '" i [31:0] $end
$upscope $end
$scope module gen_register_i0 $end
$var wire 1 ) clk $end
$var wire 32 (" data_in [31:0] $end
$var wire 1 * rst $end
$var wire 1 ) write_en $end
$var reg 32 )" data_out [31:0] $end
$upscope $end
$upscope $end
$scope task test_case $end
$var reg 6 *" instr_opcode_exp [5:0] $end
$var reg 32 +" prog_count_exp [31:0] $end
$var reg 5 ," reg1_addr_exp [4:0] $end
$var reg 32 -" reg1_data_exp [31:0] $end
$var reg 5 ." reg2_addr_exp [4:0] $end
$var reg 32 /" reg2_data_exp [31:0] $end
$var reg 5 0" write_reg_addr_exp [4:0] $end
$var reg 32 1" write_reg_data_exp [31:0] $end
$upscope $end
$upscope $end
$enddefinitions $end
#0
$dumpvars
bx 1"
bx 0"
bx /"
bx ."
bx -"
bx ,"
bx +"
bx *"
b0 )"
b100 ("
bx '"
bx &"
b10 %"
bx $"
b0 #"
b10 ""
bx !"
b0 ~
b100011 }
0|
bx {
b100000 z
b10 y
b11100 x
b100 w
bx v
bx u
bx t
b10 s
b11111 r
0q
bx p
b100 o
b0 n
b10 m
b100 l
b10 k
b0 j
b11111 i
b100 h
b100 g
b100000 f
b11111 e
bx d
b11111 c
b10 b
b0 a
b10 `
bx _
bx ^
bx ]
bx \
bx [
b10001100000000100000000000011111 Z
b0 Y
bx X
b11111 W
b11111 V
b0 U
b10 T
b0 S
1R
0Q
b100000 P
bx O
b0 N
b10 M
bx L
b11111 K
b100 J
b10001100000000100000000000011111 I
bx H
1G
1F
0E
b100011 D
0C
1B
b100 A
b11111 @
b11111 ?
b11111 >
x=
b11100 <
bx ;
b0 :
b0 9
bx 8
b10 7
bx 6
bx 5
b10 4
bx 3
b0 2
b100011 1
bx 0
b10 /
0.
b0 -
b0 ,
b0 +
1*
0)
b100011 (
b0 '
b0 &
bx %
b10 $
bx #
b10 "
bx !
$end
#50000
b1010110 !
b1010110 0
b1010110 L
b1010110 _
b1010110 !"
b1010110 O
b1010110 \
b1010110 ]
b11111 ;
b11111 X
0=
b11111 H
b11111 ^
b11111 u
b0 #
b0 5
b0 6
b0 [
b0 d
b0 &"
b0 %
b0 3
b0 8
b0 t
b0 $"
b100000 '"
1)
#95000
0*
#100000
b1010110 1"
b10 0"
b0 /"
b10 ."
b0 -"
b0 ,"
b100011 *"
b0 +"
0)
#150000
b10101100 ;
b10101100 X
b10101100 !
b10101100 0
b10101100 L
b10101100 _
b10101100 !"
bz O
bz \
bz ]
b100000 ?
b100000 i
b1100000100000 <
b1100000100000 x
b1010110 >
b1010110 e
b1010110 r
b11 "
b11 /
b11 M
b11 b
b11 ""
b10101100 H
b10101100 ^
b10101100 u
b10 S
b10 j
b10 ~
1C
1B
0R
0F
0G
b1100000100000 K
b1100000100000 W
b1100000100000 c
b1100000100000 @
b1100000100000 V
b11 N
b11 a
b1010110 %
b1010110 3
b1010110 8
b1010110 t
b1010110 $"
b10 &
b10 2
b10 9
b10 #"
b0 (
b0 1
b0 D
b0 }
b1000 A
b1000 h
b1000 ("
b1100000101000 P
b1100000101000 f
b1100000101000 z
b10000100001100000100000 I
b10000100001100000100000 Z
b1 :
b1 Y
b1000 J
b1000 g
b1000 o
b1000 w
b100 '
b100 -
b100 U
b100 n
b100 )"
b1010110 #
b1010110 5
b1010110 6
b1010110 [
b1010110 d
b1010110 &"
b1 +
b1 ,
1)
#200000
0)
#250000
b10000100 ;
b10000100 X
b10000100 !
b10000100 0
b10000100 L
b10000100 _
b10000100 !"
b100 ?
b100 i
b10000100 <
b10000100 x
b10000100 >
b10000100 e
b10000100 r
b10000100 H
b10000100 ^
b10000100 u
1E
1R
0B
b0 S
b0 j
b0 ~
0C
b10000100 K
b10000100 W
b10000100 c
b10000100 @
b10000100 V
b0 N
b0 a
b10101100 #
b10101100 5
b10101100 6
b10101100 [
b10101100 d
b10101100 &"
b11 $
b11 4
b11 7
b11 `
b11 %"
b0 %
b0 3
b0 8
b0 t
b0 $"
b0 &
b0 2
b0 9
b0 #"
b101011 (
b101011 1
b101011 D
b101011 }
b1100 A
b1100 h
b1100 ("
b10010000 P
b10010000 f
b10010000 z
b10101100000000110000000010000100 I
b10101100000000110000000010000100 Z
b10 :
b10 Y
b1100 J
b1100 g
b1100 o
b1100 w
b1000 '
b1000 -
b1000 U
b1000 n
b1000 )"
b10 +
b10 ,
1)
b10101100 1"
b11 0"
b1010110 /"
b1010110 -"
b10 ,"
b0 *"
b100 +"
#300000
0)
#350000
b1010110 ;
b1010110 X
b1010110 !
b1010110 0
b1010110 L
b1010110 _
b1010110 !"
b110 T
b110 k
b110 s
b100010 ?
b100010 i
b10000000100000 <
b10000000100000 x
b100 "
b100 /
b100 M
b100 b
b100 ""
b1010110 >
b1010110 e
b1010110 r
b1010110 H
b1010110 ^
b1010110 u
b10 S
b10 j
b10 ~
1B
1C
0R
0E
b10000000100010 K
b10000000100010 W
b10000000100010 c
b10000000100010 @
b10000000100010 V
b100 N
b100 a
b1010110 #
b1010110 5
b1010110 6
b1010110 [
b1010110 d
b1010110 &"
b10 $
b10 4
b10 7
b10 `
b10 %"
b10101100 %
b10101100 3
b10101100 8
b10101100 t
b10101100 $"
b11 &
b11 2
b11 9
b11 #"
b0 (
b0 1
b0 D
b0 }
b10000 A
b10000 h
b10000 ("
b10000000110000 P
b10000000110000 f
b10000000110000 z
b11000100010000000100010 I
b11000100010000000100010 Z
b11 :
b11 Y
b10000 J
b10000 g
b10000 o
b10000 w
b1100 '
b1100 -
b1100 U
b1100 n
b1100 )"
b11 +
b11 ,
1)
b10000100 1"
b10101100 /"
b11 ."
b0 -"
b0 ,"
b101011 *"
b1000 +"
#400000
0)
#450000
b10111000 ;
b10111000 X
b10111000 !
b10111000 0
b10111000 L
b10111000 _
b10111000 !"
b10111000 H
b10111000 ^
b10111000 u
b10 T
b10 k
b10 s
b1100 ?
b1100 i
b1100 <
b1100 x
b101 "
b101 /
b101 M
b101 b
b101 ""
b1100 >
b1100 e
b1100 r
1R
1B
b0 S
b0 j
b0 ~
0C
b1100 K
b1100 W
b1100 c
b1100 @
b1100 V
b0 N
b0 a
b0 #
b0 5
b0 6
b0 [
b0 d
b0 &"
b101 $
b101 4
b101 7
b101 `
b101 %"
b1000 (
b1000 1
b1000 D
b1000 }
b10100 A
b10100 h
b10100 ("
b100000 P
b100000 f
b100000 z
b100000011001010000000000001100 I
b100000011001010000000000001100 Z
b100 :
b100 Y
b10100 J
b10100 g
b10100 o
b10100 w
b10000 '
b10000 -
b10000 U
b10000 n
b10000 )"
b100 +
b100 ,
1)
b1010110 1"
b100 0"
b1010110 /"
b10 ."
b10101100 -"
b11 ,"
b0 *"
b1100 +"
#500000
0)
#550000
b10101000 ;
b10101000 X
b10101000 !
b10101000 0
b10101000 L
b10101000 _
b10101000 !"
b0 T
b0 k
b0 s
b100100 ?
b100100 i
b11000000100100 <
b11000000100100 x
b110 "
b110 /
b110 M
b110 b
b110 ""
b10101100 >
b10101100 e
b10101100 r
b10101000 H
b10101000 ^
b10101000 u
b10 S
b10 j
b10 ~
1C
1B
0R
b11000000100100 K
b11000000100100 W
b11000000100100 c
b11000000100100 @
b11000000100100 V
b110 N
b110 a
b11 $
b11 4
b11 7
b11 `
b11 %"
b10111000 %
b10111000 3
b10111000 8
b10111000 t
b10111000 $"
b101 &
b101 2
b101 9
b101 #"
b0 (
b0 1
b0 D
b0 }
b11000 A
b11000 h
b11000 ("
b11000000111100 P
b11000000111100 f
b11000000111100 z
b101000110011000000100100 I
b101000110011000000100100 Z
b101 :
b101 Y
b11000 J
b11000 g
b11000 o
b11000 w
b10100 '
b10100 -
b10100 U
b10100 n
b10100 )"
b10101100 #
b10101100 5
b10101100 6
b10101100 [
b10101100 d
b10101100 &"
b101 +
b101 ,
1)
b10111000 1"
b101 0"
b0 /"
b101 ."
b1000 *"
b10000 +"
#600000
0)
#650000
b11111110 ;
b11111110 X
b11111110 !
b11111110 0
b11111110 L
b11111110 _
b11111110 !"
b1 T
b1 k
b1 s
0=
b11111110 H
b11111110 ^
b11111110 u
b100101 ?
b100101 i
b11100000100100 <
b11100000100100 x
b111 "
b111 /
b111 M
b111 b
b111 ""
b1010110 >
b1010110 e
b1010110 r
b11100000100101 K
b11100000100101 W
b11100000100101 c
b11100000100101 @
b11100000100101 V
b111 N
b111 a
b1010110 #
b1010110 5
b1010110 6
b1010110 [
b1010110 d
b1010110 &"
b10 $
b10 4
b10 7
b10 `
b10 %"
b10101000 %
b10101000 3
b10101000 8
b10101000 t
b10101000 $"
b110 &
b110 2
b110 9
b110 #"
b11100 A
b11100 h
b11100 ("
b11100001000000 P
b11100001000000 f
b11100001000000 z
b110000100011100000100101 I
b110000100011100000100101 Z
b110 :
b110 Y
b11100 J
b11100 g
b11100 o
b11100 w
b11000 '
b11000 -
b11000 U
b11000 n
b11000 )"
b110 +
b110 ,
1)
b10101000 1"
b110 0"
b10101100 /"
b11 ."
b10111000 -"
b101 ,"
b0 *"
b10100 +"
#700000
0)
#750000
b1 ;
b1 X
b11111111111111111111111100000001 !
b11111111111111111111111100000001 0
b11111111111111111111111100000001 L
b11111111111111111111111100000001 _
b11111111111111111111111100000001 !"
b11111111111111111111111100000001 H
b11111111111111111111111100000001 ^
b11111111111111111111111100000001 u
b1100 T
b1100 k
b1100 s
b100111 ?
b100111 i
b100000000100100 <
b100000000100100 x
b1000 "
b1000 /
b1000 M
b1000 b
b1000 ""
b100000000100111 K
b100000000100111 W
b100000000100111 c
b100000000100111 @
b100000000100111 V
b1000 N
b1000 a
b100000 A
b100000 h
b100000 ("
b100000001000100 P
b100000001000100 f
b100000001000100 z
b110000100100000000100111 I
b110000100100000000100111 Z
b111 :
b111 Y
b100000 J
b100000 g
b100000 o
b100000 w
b11100 '
b11100 -
b11100 U
b11100 n
b11100 )"
b111 +
b111 ,
1)
b11111110 1"
b111 0"
b1010110 /"
b10 ."
b10101000 -"
b110 ,"
b11000 +"
#800000
0)
#850000
b0 ;
b0 X
b0 !
b0 0
b0 L
b0 _
b0 !"
1=
b0 H
b0 ^
b0 u
b111 T
b111 k
b111 s
b101010 ?
b101010 i
b11000000101000 <
b11000000101000 x
b110 "
b110 /
b110 M
b110 b
b110 ""
b11000000101010 K
b11000000101010 W
b11000000101010 c
b11000000101010 @
b11000000101010 V
b110 N
b110 a
b100 $
b100 4
b100 7
b100 `
b100 %"
b10111000 %
b10111000 3
b10111000 8
b10111000 t
b10111000 $"
b101 &
b101 2
b101 9
b101 #"
b100100 A
b100100 h
b100100 ("
b11000001001100 P
b11000001001100 f
b11000001001100 z
b101001000011000000101010 I
b101001000011000000101010 Z
b1000 :
b1000 Y
b100100 J
b100100 g
b100100 o
b100100 w
b100000 '
b100000 -
b100000 U
b100000 n
b100000 )"
b1000 +
b1000 ,
1)
b11111111111111111111111100000001 1"
b1000 0"
b11100 +"
#900000
0)
#950000
b10111000 ;
b10111000 X
b10111000 !
b10111000 0
b10111000 L
b10111000 _
b10111000 !"
0=
b10111000 H
b10111000 ^
b10111000 u
0.
b110 T
b110 k
b110 s
b111000 ?
b111000 i
b11111111111111111111111111111000 <
b11111111111111111111111111111000 x
b11111 "
b11111 /
b11111 M
b11111 b
b11111 ""
b0 >
b0 e
b0 r
1Q
0B
b1 S
b1 j
b1 ~
1C
b11111111111111111111111111111000 K
b11111111111111111111111111111000 W
b11111111111111111111111111111000 c
b1111111111111000 @
b1111111111111000 V
b11111 N
b11111 a
b0 #
b0 5
b0 6
b0 [
b0 d
b0 &"
b0 $
b0 4
b0 7
b0 `
b0 %"
b100 (
b100 1
b100 D
b100 }
b101000 A
b101000 h
b101000 ("
b100000 P
b100000 f
b100000 z
b10000101000001111111111111000 I
b10000101000001111111111111000 Z
b1001 :
b1001 Y
b101000 J
b101000 g
b101000 o
b101000 w
b100100 '
b100100 -
b100100 U
b100100 n
b100100 )"
b1001 +
b1001 ,
1)
b0 1"
b110 0"
b100 ."
b10111000 -"
b101 ,"
b100000 +"
#1000000
0)
#1050000
b10000100 ;
b10000100 X
b10101100 O
b10101100 \
b10101100 ]
b10101100 !
b10101100 0
b10101100 L
b10101100 _
b10101100 !"
b10 T
b10 k
b10 s
b100 ?
b100 i
b10000100 <
b10000100 x
b1000 "
b1000 /
b1000 M
b1000 b
b1000 ""
b10000100 >
b10000100 e
b10000100 r
0=
b10000100 H
b10000100 ^
b10000100 u
1G
1B
1F
1R
b0 S
b0 j
b0 ~
0Q
0C
b10000100 K
b10000100 W
b10000100 c
b10000100 @
b10000100 V
b0 N
b0 a
b11111111111111111111111100000001 #
b11111111111111111111111100000001 5
b11111111111111111111111100000001 6
b11111111111111111111111100000001 [
b11111111111111111111111100000001 d
b11111111111111111111111100000001 &"
b1000 $
b1000 4
b1000 7
b1000 `
b1000 %"
b0 %
b0 3
b0 8
b0 t
b0 $"
b0 &
b0 2
b0 9
b0 #"
b100011 (
b100011 1
b100011 D
b100011 }
b101100 A
b101100 h
b101100 ("
b10110000 P
b10110000 f
b10110000 z
b10001100000010000000000010000100 I
b10001100000010000000000010000100 Z
b1010 :
b1010 Y
b101100 J
b101100 g
b101100 o
b101100 w
b101000 '
b101000 -
b101000 U
b101000 n
b101000 )"
b1010 +
b1010 ,
1)
b10111000 1"
b11111 0"
b0 /"
b0 ."
b100 *"
b100100 +"
#1100000
0)
#1150000
b0 ;
b0 X
1=
b0 H
b0 ^
b0 u
b0 !
b0 0
b0 L
b0 _
b0 !"
bz O
bz \
bz ]
b0 ?
b0 i
b0 <
b0 x
b0 "
b0 /
b0 M
b0 b
b0 ""
b0 >
b0 e
b0 r
b10 S
b10 j
b10 ~
1C
1B
0R
0F
0G
b0 K
b0 W
b0 c
b0 @
b0 V
b0 $
b0 4
b0 7
b0 `
b0 %"
b0 (
b0 1
b0 D
b0 }
b110000 A
b110000 h
b110000 ("
b110000 P
b110000 f
b110000 z
b0 I
b0 Z
b1011 :
b1011 Y
b110000 J
b110000 g
b110000 o
b110000 w
b101100 '
b101100 -
b101100 U
b101100 n
b101100 )"
b0 #
b0 5
b0 6
b0 [
b0 d
b0 &"
b1011 +
b1011 ,
1)
b10101100 1"
b1000 0"
b11111111111111111111111100000001 /"
b1000 ."
b0 -"
b0 ,"
b100011 *"
b101000 +"
